{
	/*
	 // Place your snippets for HTML here. Each snippet is defined under a snippet name and has a prefix, body and 
	 // description. The prefix is what is used to trigger the snippet and the body will be expanded and inserted. Possible variables are:
	 // $1, $2 for tab stops, ${id} and ${id:label} and ${1:label} for variables. Variables with the same id are connected.
	 // Example:
	 "Print to console": {
		"prefix": "log",
		"body": [
			"console.log('$1');",
			"$2"
		],
		"description": "Log output to console"
	}
*/
	"SlyFramework - Header": {
		"prefix": "sf-header",
		"body": [
			"<h3 class=\"header\">Credit Report</h3>"
		],
		"description": "Header using the SlyFramework"
	},

	"SlyFramework - Section Header" : {
	"prefix": "sf-sectionHeader",
	"body": [
		"<div class=\"row\">",
		"\t<div class=\"col-8\">",
			"\t\t<section>",
				"\t\t\t<div class=\"header\">Section Title</div>",
				"\t\t\t<div>",
				"\t\t\t</div>",
			"\t\t</section>",
		"\t</div>",
		"</div>"
	], 
	"description": "Section Header using SlyFramework"
	},

	"DataTable Header": {
		"prefix" : "dataTable",
		"body": [
			"<div class=\"dataTable\">",
			"\t<div class=\"flex-row data-table-header\">",
            "\t\t<div class=\"col-1\">",
            "\t\t\t<i class=\"flaticon-commerce\"></i>",
            "\t\t</div>",
            "\t\t<div class=\"col-4\">Header</div>",
            "\t\t<div class=\"col-3\">Name</div>",
            "\t\t<div class=\"col-3\">Data</div>",
            "\t\t<div class=\"col-1\">Info</div>",
            "\t\t<div class=\"col-1\">More</div>",
            "\t\t<div class=\"col-2\"></div>",
        	"\t</div>",
			"\n",
			"\t<div ",
        "\tclass=\"flex-row dataTableRow\" ",
        "\t*ngFor=\"let lead of Leads; let odd = odd\" ", 
        "\t[ngClass]=\"{dataTableRowAlternate: odd}\">",
		"",
        "\t<div class=\"dataItem col-4\">{{ obj.PropName }}</div>",
		"\t</div>",
		"</div>"
		],
		"description": "SlyFramework DataTable Header"
	}
}